---
http_interactions:
- request:
    method: get
    uri: https://api.pexels.com/v1/search?query=denver,co
    body:
      encoding: US-ASCII
      string: ''
    headers:
      Authorization:
      - 563492ad6f9170000100000175f18b5cd9cd467e95dc77f966b5e057
      User-Agent:
      - Faraday v2.2.0
      Accept-Encoding:
      - gzip;q=1.0,deflate;q=0.6,identity;q=0.3
      Accept:
      - "*/*"
  response:
    status:
      code: 200
      message: OK
    headers:
      Date:
      - Wed, 09 Mar 2022 14:03:46 GMT
      Content-Type:
      - application/json; charset=utf-8
      Content-Length:
      - '2443'
      Connection:
      - keep-alive
      Cf-Ray:
      - 6e945b204f408c83-EWR
      Cache-Control:
      - max-age=0, private, must-revalidate
      Set-Cookie:
      - __cf_bm=NJgjv4uGqvOCWypqaxG8a.Prqh2fKB8PCWUNx0f8Arw-1646834590-0-AZqAUmAotK0A+24vKo3Y7j5BDDRPMPdGRifRXtnS5hcetXHIjSfyMjKJlYDkcxCDlvchb9wmzk2U8ePxYb2eRmA=;
        path=/; expires=Wed, 09-Mar-22 14:33:10 GMT; domain=.pexels.com; HttpOnly;
        Secure; SameSite=None
      - __cf_bm=VbLZ8kcK83m2RnXQXF5AlNcV8eEgYaW8LbiLjAaQ5NY-1646834626-0-Ac88SBHVCUKll542pDTCx4Iy2CCwrTBTlCXyeXdcX8dzMLdaiftoz+YChy2M9baLSgEa2KDLEwT3MSKb2/XJvGs=;
        path=/; expires=Wed, 09-Mar-22 14:33:46 GMT; domain=.pexels.com; HttpOnly;
        Secure; SameSite=None
      - _mkra_stck=mysql%3A1646834595.8363233; path=/; max-age=10; expires=Wed, 09
        Mar 2022 14:03:20 GMT; HttpOnly
      Vary:
      - Origin, Accept-Encoding
      Cf-Cache-Status:
      - DYNAMIC
      Alt-Svc:
      - h3=":443"; ma=86400, h3-29=":443"; ma=86400
      Expect-Ct:
      - max-age=604800, report-uri="https://report-uri.cloudflare.com/cdn-cgi/beacon/expect-ct"
      X-Frame-Options:
      - SAMEORIGIN
      X-Ratelimit-Limit:
      - '20000'
      X-Ratelimit-Remaining:
      - '19849'
      X-Ratelimit-Reset:
      - '1649100284'
      X-Request-Id:
      - ae1309d9-c957-49e0-bb1d-09208c4f1e5f
      X-Runtime:
      - '0.254651'
      X-Server:
      - alpaca
      X-Tyk-Cached-Response:
      - '1'
      Server:
      - cloudflare
    body:
      encoding: ASCII-8BIT
      string: '{"page":1,"per_page":15,"photos":[{"id":8373833,"width":2000,"height":3000,"url":"https://www.pexels.com/photo/photo-of-women-using-laptops-8373833/","photographer":"Darina
        Belonogova","photographer_url":"https://www.pexels.com/@darina-belonogova","photographer_id":22470218,"avg_color":"#A8988B","src":{"original":"https://images.pexels.com/photos/8373833/pexels-photo-8373833.jpeg","large2x":"https://images.pexels.com/photos/8373833/pexels-photo-8373833.jpeg?auto=compress\u0026cs=tinysrgb\u0026dpr=2\u0026h=650\u0026w=940","large":"https://images.pexels.com/photos/8373833/pexels-photo-8373833.jpeg?auto=compress\u0026cs=tinysrgb\u0026h=650\u0026w=940","medium":"https://images.pexels.com/photos/8373833/pexels-photo-8373833.jpeg?auto=compress\u0026cs=tinysrgb\u0026h=350","small":"https://images.pexels.com/photos/8373833/pexels-photo-8373833.jpeg?auto=compress\u0026cs=tinysrgb\u0026h=130","portrait":"https://images.pexels.com/photos/8373833/pexels-photo-8373833.jpeg?auto=compress\u0026cs=tinysrgb\u0026fit=crop\u0026h=1200\u0026w=800","landscape":"https://images.pexels.com/photos/8373833/pexels-photo-8373833.jpeg?auto=compress\u0026cs=tinysrgb\u0026fit=crop\u0026h=627\u0026w=1200","tiny":"https://images.pexels.com/photos/8373833/pexels-photo-8373833.jpeg?auto=compress\u0026cs=tinysrgb\u0026dpr=1\u0026fit=crop\u0026h=200\u0026w=280"},"liked":false,"alt":"Photo
        of Women Using Laptops"},{"id":7993899,"width":3897,"height":5845,"url":"https://www.pexels.com/photo/men-wearing-long-sleeves-talking-to-each-other-7993899/","photographer":"Thirdman","photographer_url":"https://www.pexels.com/@thirdman","photographer_id":3361091,"avg_color":"#777066","src":{"original":"https://images.pexels.com/photos/7993899/pexels-photo-7993899.jpeg","large2x":"https://images.pexels.com/photos/7993899/pexels-photo-7993899.jpeg?auto=compress\u0026cs=tinysrgb\u0026dpr=2\u0026h=650\u0026w=940","large":"https://images.pexels.com/photos/7993899/pexels-photo-7993899.jpeg?auto=compress\u0026cs=tinysrgb\u0026h=650\u0026w=940","medium":"https://images.pexels.com/photos/7993899/pexels-photo-7993899.jpeg?auto=compress\u0026cs=tinysrgb\u0026h=350","small":"https://images.pexels.com/photos/7993899/pexels-photo-7993899.jpeg?auto=compress\u0026cs=tinysrgb\u0026h=130","portrait":"https://images.pexels.com/photos/7993899/pexels-photo-7993899.jpeg?auto=compress\u0026cs=tinysrgb\u0026fit=crop\u0026h=1200\u0026w=800","landscape":"https://images.pexels.com/photos/7993899/pexels-photo-7993899.jpeg?auto=compress\u0026cs=tinysrgb\u0026fit=crop\u0026h=627\u0026w=1200","tiny":"https://images.pexels.com/photos/7993899/pexels-photo-7993899.jpeg?auto=compress\u0026cs=tinysrgb\u0026dpr=1\u0026fit=crop\u0026h=200\u0026w=280"},"liked":false,"alt":"Men
        Wearing Long Sleeves Talking to Each Other "},{"id":3184423,"width":4004,"height":6000,"url":"https://www.pexels.com/photo/photo-of-people-holding-each-other-s-hands-3184423/","photographer":"fauxels","photographer_url":"https://www.pexels.com/@fauxels","photographer_id":1281351,"avg_color":"#8B7D77","src":{"original":"https://images.pexels.com/photos/3184423/pexels-photo-3184423.jpeg","large2x":"https://images.pexels.com/photos/3184423/pexels-photo-3184423.jpeg?auto=compress\u0026cs=tinysrgb\u0026dpr=2\u0026h=650\u0026w=940","large":"https://images.pexels.com/photos/3184423/pexels-photo-3184423.jpeg?auto=compress\u0026cs=tinysrgb\u0026h=650\u0026w=940","medium":"https://images.pexels.com/photos/3184423/pexels-photo-3184423.jpeg?auto=compress\u0026cs=tinysrgb\u0026h=350","small":"https://images.pexels.com/photos/3184423/pexels-photo-3184423.jpeg?auto=compress\u0026cs=tinysrgb\u0026h=130","portrait":"https://images.pexels.com/photos/3184423/pexels-photo-3184423.jpeg?auto=compress\u0026cs=tinysrgb\u0026fit=crop\u0026h=1200\u0026w=800","landscape":"https://images.pexels.com/photos/3184423/pexels-photo-3184423.jpeg?auto=compress\u0026cs=tinysrgb\u0026fit=crop\u0026h=627\u0026w=1200","tiny":"https://images.pexels.com/photos/3184423/pexels-photo-3184423.jpeg?auto=compress\u0026cs=tinysrgb\u0026dpr=1\u0026fit=crop\u0026h=200\u0026w=280"},"liked":false,"alt":"Photo
        Of People Holding Each Other''s Hands"},{"id":3153198,"width":3781,"height":2521,"url":"https://www.pexels.com/photo/woman-sharing-her-presentation-with-her-colleagues-3153198/","photographer":"Canva
        Studio","photographer_url":"https://www.pexels.com/@canvastudio","photographer_id":1614591,"avg_color":"#A9A39B","src":{"original":"https://images.pexels.com/photos/3153198/pexels-photo-3153198.jpeg","large2x":"https://images.pexels.com/photos/3153198/pexels-photo-3153198.jpeg?auto=compress\u0026cs=tinysrgb\u0026dpr=2\u0026h=650\u0026w=940","large":"https://images.pexels.com/photos/3153198/pexels-photo-3153198.jpeg?auto=compress\u0026cs=tinysrgb\u0026h=650\u0026w=940","medium":"https://images.pexels.com/photos/3153198/pexels-photo-3153198.jpeg?auto=compress\u0026cs=tinysrgb\u0026h=350","small":"https://images.pexels.com/photos/3153198/pexels-photo-3153198.jpeg?auto=compress\u0026cs=tinysrgb\u0026h=130","portrait":"https://images.pexels.com/photos/3153198/pexels-photo-3153198.jpeg?auto=compress\u0026cs=tinysrgb\u0026fit=crop\u0026h=1200\u0026w=800","landscape":"https://images.pexels.com/photos/3153198/pexels-photo-3153198.jpeg?auto=compress\u0026cs=tinysrgb\u0026fit=crop\u0026h=627\u0026w=1200","tiny":"https://images.pexels.com/photos/3153198/pexels-photo-3153198.jpeg?auto=compress\u0026cs=tinysrgb\u0026dpr=1\u0026fit=crop\u0026h=200\u0026w=280"},"liked":false,"alt":"Woman
        Sharing Her Presentation with her Colleagues"},{"id":7279327,"width":4480,"height":6720,"url":"https://www.pexels.com/photo/man-in-white-dress-shirt-sitting-on-brown-chair-7279327/","photographer":"Anastasia  Shuraeva","photographer_url":"https://www.pexels.com/@anastasia-shuraeva","photographer_id":2441340,"avg_color":"#6B6556","src":{"original":"https://images.pexels.com/photos/7279327/pexels-photo-7279327.jpeg","large2x":"https://images.pexels.com/photos/7279327/pexels-photo-7279327.jpeg?auto=compress\u0026cs=tinysrgb\u0026dpr=2\u0026h=650\u0026w=940","large":"https://images.pexels.com/photos/7279327/pexels-photo-7279327.jpeg?auto=compress\u0026cs=tinysrgb\u0026h=650\u0026w=940","medium":"https://images.pexels.com/photos/7279327/pexels-photo-7279327.jpeg?auto=compress\u0026cs=tinysrgb\u0026h=350","small":"https://images.pexels.com/photos/7279327/pexels-photo-7279327.jpeg?auto=compress\u0026cs=tinysrgb\u0026h=130","portrait":"https://images.pexels.com/photos/7279327/pexels-photo-7279327.jpeg?auto=compress\u0026cs=tinysrgb\u0026fit=crop\u0026h=1200\u0026w=800","landscape":"https://images.pexels.com/photos/7279327/pexels-photo-7279327.jpeg?auto=compress\u0026cs=tinysrgb\u0026fit=crop\u0026h=627\u0026w=1200","tiny":"https://images.pexels.com/photos/7279327/pexels-photo-7279327.jpeg?auto=compress\u0026cs=tinysrgb\u0026dpr=1\u0026fit=crop\u0026h=200\u0026w=280"},"liked":false,"alt":"Man
        in White Dress Shirt Sitting on Brown Chair"},{"id":4167544,"width":3372,"height":5058,"url":"https://www.pexels.com/photo/hands-with-latex-gloves-holding-a-globe-with-a-face-mask-4167544/","photographer":"Anna
        Shvets","photographer_url":"https://www.pexels.com/@shvetsa","photographer_id":1984515,"avg_color":"#B5B7BD","src":{"original":"https://images.pexels.com/photos/4167544/pexels-photo-4167544.jpeg","large2x":"https://images.pexels.com/photos/4167544/pexels-photo-4167544.jpeg?auto=compress\u0026cs=tinysrgb\u0026dpr=2\u0026h=650\u0026w=940","large":"https://images.pexels.com/photos/4167544/pexels-photo-4167544.jpeg?auto=compress\u0026cs=tinysrgb\u0026h=650\u0026w=940","medium":"https://images.pexels.com/photos/4167544/pexels-photo-4167544.jpeg?auto=compress\u0026cs=tinysrgb\u0026h=350","small":"https://images.pexels.com/photos/4167544/pexels-photo-4167544.jpeg?auto=compress\u0026cs=tinysrgb\u0026h=130","portrait":"https://images.pexels.com/photos/4167544/pexels-photo-4167544.jpeg?auto=compress\u0026cs=tinysrgb\u0026fit=crop\u0026h=1200\u0026w=800","landscape":"https://images.pexels.com/photos/4167544/pexels-photo-4167544.jpeg?auto=compress\u0026cs=tinysrgb\u0026fit=crop\u0026h=627\u0026w=1200","tiny":"https://images.pexels.com/photos/4167544/pexels-photo-4167544.jpeg?auto=compress\u0026cs=tinysrgb\u0026dpr=1\u0026fit=crop\u0026h=200\u0026w=280"},"liked":false,"alt":"Hands
        With Latex Gloves Holding a Globe with a Face Mask"},{"id":3183165,"width":4004,"height":6000,"url":"https://www.pexels.com/photo/top-view-photo-of-people-having-a-meeting-3183165/","photographer":"fauxels","photographer_url":"https://www.pexels.com/@fauxels","photographer_id":1281351,"avg_color":"#574C48","src":{"original":"https://images.pexels.com/photos/3183165/pexels-photo-3183165.jpeg","large2x":"https://images.pexels.com/photos/3183165/pexels-photo-3183165.jpeg?auto=compress\u0026cs=tinysrgb\u0026dpr=2\u0026h=650\u0026w=940","large":"https://images.pexels.com/photos/3183165/pexels-photo-3183165.jpeg?auto=compress\u0026cs=tinysrgb\u0026h=650\u0026w=940","medium":"https://images.pexels.com/photos/3183165/pexels-photo-3183165.jpeg?auto=compress\u0026cs=tinysrgb\u0026h=350","small":"https://images.pexels.com/photos/3183165/pexels-photo-3183165.jpeg?auto=compress\u0026cs=tinysrgb\u0026h=130","portrait":"https://images.pexels.com/photos/3183165/pexels-photo-3183165.jpeg?auto=compress\u0026cs=tinysrgb\u0026fit=crop\u0026h=1200\u0026w=800","landscape":"https://images.pexels.com/photos/3183165/pexels-photo-3183165.jpeg?auto=compress\u0026cs=tinysrgb\u0026fit=crop\u0026h=627\u0026w=1200","tiny":"https://images.pexels.com/photos/3183165/pexels-photo-3183165.jpeg?auto=compress\u0026cs=tinysrgb\u0026dpr=1\u0026fit=crop\u0026h=200\u0026w=280"},"liked":false,"alt":"Top
        View Photo of People Having a Meeting"},{"id":7688336,"width":5184,"height":3888,"url":"https://www.pexels.com/photo/people-in-the-office-discussing-a-project-7688336/","photographer":"Kindel
        Media","photographer_url":"https://www.pexels.com/@kindelmedia","photographer_id":10715715,"avg_color":"#A49285","src":{"original":"https://images.pexels.com/photos/7688336/pexels-photo-7688336.jpeg","large2x":"https://images.pexels.com/photos/7688336/pexels-photo-7688336.jpeg?auto=compress\u0026cs=tinysrgb\u0026dpr=2\u0026h=650\u0026w=940","large":"https://images.pexels.com/photos/7688336/pexels-photo-7688336.jpeg?auto=compress\u0026cs=tinysrgb\u0026h=650\u0026w=940","medium":"https://images.pexels.com/photos/7688336/pexels-photo-7688336.jpeg?auto=compress\u0026cs=tinysrgb\u0026h=350","small":"https://images.pexels.com/photos/7688336/pexels-photo-7688336.jpeg?auto=compress\u0026cs=tinysrgb\u0026h=130","portrait":"https://images.pexels.com/photos/7688336/pexels-photo-7688336.jpeg?auto=compress\u0026cs=tinysrgb\u0026fit=crop\u0026h=1200\u0026w=800","landscape":"https://images.pexels.com/photos/7688336/pexels-photo-7688336.jpeg?auto=compress\u0026cs=tinysrgb\u0026fit=crop\u0026h=627\u0026w=1200","tiny":"https://images.pexels.com/photos/7688336/pexels-photo-7688336.jpeg?auto=compress\u0026cs=tinysrgb\u0026dpr=1\u0026fit=crop\u0026h=200\u0026w=280"},"liked":false,"alt":"People
        in the Office Discussing a Project"},{"id":3205568,"width":2691,"height":4029,"url":"https://www.pexels.com/photo/women-and-men-standing-near-table-3205568/","photographer":"cottonbro","photographer_url":"https://www.pexels.com/@cottonbro","photographer_id":1437723,"avg_color":"#494742","src":{"original":"https://images.pexels.com/photos/3205568/pexels-photo-3205568.jpeg","large2x":"https://images.pexels.com/photos/3205568/pexels-photo-3205568.jpeg?auto=compress\u0026cs=tinysrgb\u0026dpr=2\u0026h=650\u0026w=940","large":"https://images.pexels.com/photos/3205568/pexels-photo-3205568.jpeg?auto=compress\u0026cs=tinysrgb\u0026h=650\u0026w=940","medium":"https://images.pexels.com/photos/3205568/pexels-photo-3205568.jpeg?auto=compress\u0026cs=tinysrgb\u0026h=350","small":"https://images.pexels.com/photos/3205568/pexels-photo-3205568.jpeg?auto=compress\u0026cs=tinysrgb\u0026h=130","portrait":"https://images.pexels.com/photos/3205568/pexels-photo-3205568.jpeg?auto=compress\u0026cs=tinysrgb\u0026fit=crop\u0026h=1200\u0026w=800","landscape":"https://images.pexels.com/photos/3205568/pexels-photo-3205568.jpeg?auto=compress\u0026cs=tinysrgb\u0026fit=crop\u0026h=627\u0026w=1200","tiny":"https://images.pexels.com/photos/3205568/pexels-photo-3205568.jpeg?auto=compress\u0026cs=tinysrgb\u0026dpr=1\u0026fit=crop\u0026h=200\u0026w=280"},"liked":false,"alt":"Women
        and Men Standing Near Table"},{"id":4197562,"width":4169,"height":6254,"url":"https://www.pexels.com/photo/light-blue-one-use-medical-protective-masks-4197562/","photographer":"Karolina
        Grabowska","photographer_url":"https://www.pexels.com/@karolina-grabowska","photographer_id":2332540,"avg_color":"#A6BBC5","src":{"original":"https://images.pexels.com/photos/4197562/pexels-photo-4197562.jpeg","large2x":"https://images.pexels.com/photos/4197562/pexels-photo-4197562.jpeg?auto=compress\u0026cs=tinysrgb\u0026dpr=2\u0026h=650\u0026w=940","large":"https://images.pexels.com/photos/4197562/pexels-photo-4197562.jpeg?auto=compress\u0026cs=tinysrgb\u0026h=650\u0026w=940","medium":"https://images.pexels.com/photos/4197562/pexels-photo-4197562.jpeg?auto=compress\u0026cs=tinysrgb\u0026h=350","small":"https://images.pexels.com/photos/4197562/pexels-photo-4197562.jpeg?auto=compress\u0026cs=tinysrgb\u0026h=130","portrait":"https://images.pexels.com/photos/4197562/pexels-photo-4197562.jpeg?auto=compress\u0026cs=tinysrgb\u0026fit=crop\u0026h=1200\u0026w=800","landscape":"https://images.pexels.com/photos/4197562/pexels-photo-4197562.jpeg?auto=compress\u0026cs=tinysrgb\u0026fit=crop\u0026h=627\u0026w=1200","tiny":"https://images.pexels.com/photos/4197562/pexels-photo-4197562.jpeg?auto=compress\u0026cs=tinysrgb\u0026dpr=1\u0026fit=crop\u0026h=200\u0026w=280"},"liked":false,"alt":"Top
        view of one use light blue medical respiratory protective face masks placed
        on top of each other in disorder"},{"id":3184338,"width":6000,"height":4000,"url":"https://www.pexels.com/photo/photo-of-three-people-smiling-while-having-a-meeting-3184338/","photographer":"fauxels","photographer_url":"https://www.pexels.com/@fauxels","photographer_id":1281351,"avg_color":"#A2978F","src":{"original":"https://images.pexels.com/photos/3184338/pexels-photo-3184338.jpeg","large2x":"https://images.pexels.com/photos/3184338/pexels-photo-3184338.jpeg?auto=compress\u0026cs=tinysrgb\u0026dpr=2\u0026h=650\u0026w=940","large":"https://images.pexels.com/photos/3184338/pexels-photo-3184338.jpeg?auto=compress\u0026cs=tinysrgb\u0026h=650\u0026w=940","medium":"https://images.pexels.com/photos/3184338/pexels-photo-3184338.jpeg?auto=compress\u0026cs=tinysrgb\u0026h=350","small":"https://images.pexels.com/photos/3184338/pexels-photo-3184338.jpeg?auto=compress\u0026cs=tinysrgb\u0026h=130","portrait":"https://images.pexels.com/photos/3184338/pexels-photo-3184338.jpeg?auto=compress\u0026cs=tinysrgb\u0026fit=crop\u0026h=1200\u0026w=800","landscape":"https://images.pexels.com/photos/3184338/pexels-photo-3184338.jpeg?auto=compress\u0026cs=tinysrgb\u0026fit=crop\u0026h=627\u0026w=1200","tiny":"https://images.pexels.com/photos/3184338/pexels-photo-3184338.jpeg?auto=compress\u0026cs=tinysrgb\u0026dpr=1\u0026fit=crop\u0026h=200\u0026w=280"},"liked":false,"alt":"Photo
        of Three People Smiling While Having a Meeting"},{"id":3201718,"width":2832,"height":4240,"url":"https://www.pexels.com/photo/two-women-and-man-talking-3201718/","photographer":"cottonbro","photographer_url":"https://www.pexels.com/@cottonbro","photographer_id":1437723,"avg_color":"#49392D","src":{"original":"https://images.pexels.com/photos/3201718/pexels-photo-3201718.jpeg","large2x":"https://images.pexels.com/photos/3201718/pexels-photo-3201718.jpeg?auto=compress\u0026cs=tinysrgb\u0026dpr=2\u0026h=650\u0026w=940","large":"https://images.pexels.com/photos/3201718/pexels-photo-3201718.jpeg?auto=compress\u0026cs=tinysrgb\u0026h=650\u0026w=940","medium":"https://images.pexels.com/photos/3201718/pexels-photo-3201718.jpeg?auto=compress\u0026cs=tinysrgb\u0026h=350","small":"https://images.pexels.com/photos/3201718/pexels-photo-3201718.jpeg?auto=compress\u0026cs=tinysrgb\u0026h=130","portrait":"https://images.pexels.com/photos/3201718/pexels-photo-3201718.jpeg?auto=compress\u0026cs=tinysrgb\u0026fit=crop\u0026h=1200\u0026w=800","landscape":"https://images.pexels.com/photos/3201718/pexels-photo-3201718.jpeg?auto=compress\u0026cs=tinysrgb\u0026fit=crop\u0026h=627\u0026w=1200","tiny":"https://images.pexels.com/photos/3201718/pexels-photo-3201718.jpeg?auto=compress\u0026cs=tinysrgb\u0026dpr=1\u0026fit=crop\u0026h=200\u0026w=280"},"liked":false,"alt":"Two
        Women and Man Talking"},{"id":3184299,"width":5732,"height":3821,"url":"https://www.pexels.com/photo/photo-of-man-sitting-in-front-of-people-3184299/","photographer":"fauxels","photographer_url":"https://www.pexels.com/@fauxels","photographer_id":1281351,"avg_color":"#9F8E89","src":{"original":"https://images.pexels.com/photos/3184299/pexels-photo-3184299.jpeg","large2x":"https://images.pexels.com/photos/3184299/pexels-photo-3184299.jpeg?auto=compress\u0026cs=tinysrgb\u0026dpr=2\u0026h=650\u0026w=940","large":"https://images.pexels.com/photos/3184299/pexels-photo-3184299.jpeg?auto=compress\u0026cs=tinysrgb\u0026h=650\u0026w=940","medium":"https://images.pexels.com/photos/3184299/pexels-photo-3184299.jpeg?auto=compress\u0026cs=tinysrgb\u0026h=350","small":"https://images.pexels.com/photos/3184299/pexels-photo-3184299.jpeg?auto=compress\u0026cs=tinysrgb\u0026h=130","portrait":"https://images.pexels.com/photos/3184299/pexels-photo-3184299.jpeg?auto=compress\u0026cs=tinysrgb\u0026fit=crop\u0026h=1200\u0026w=800","landscape":"https://images.pexels.com/photos/3184299/pexels-photo-3184299.jpeg?auto=compress\u0026cs=tinysrgb\u0026fit=crop\u0026h=627\u0026w=1200","tiny":"https://images.pexels.com/photos/3184299/pexels-photo-3184299.jpeg?auto=compress\u0026cs=tinysrgb\u0026dpr=1\u0026fit=crop\u0026h=200\u0026w=280"},"liked":false,"alt":"Photo
        of Man Sitting in Front of People"},{"id":3182765,"width":6000,"height":4169,"url":"https://www.pexels.com/photo/photo-of-people-talking-to-each-other-3182765/","photographer":"fauxels","photographer_url":"https://www.pexels.com/@fauxels","photographer_id":1281351,"avg_color":"#B1A79C","src":{"original":"https://images.pexels.com/photos/3182765/pexels-photo-3182765.jpeg","large2x":"https://images.pexels.com/photos/3182765/pexels-photo-3182765.jpeg?auto=compress\u0026cs=tinysrgb\u0026dpr=2\u0026h=650\u0026w=940","large":"https://images.pexels.com/photos/3182765/pexels-photo-3182765.jpeg?auto=compress\u0026cs=tinysrgb\u0026h=650\u0026w=940","medium":"https://images.pexels.com/photos/3182765/pexels-photo-3182765.jpeg?auto=compress\u0026cs=tinysrgb\u0026h=350","small":"https://images.pexels.com/photos/3182765/pexels-photo-3182765.jpeg?auto=compress\u0026cs=tinysrgb\u0026h=130","portrait":"https://images.pexels.com/photos/3182765/pexels-photo-3182765.jpeg?auto=compress\u0026cs=tinysrgb\u0026fit=crop\u0026h=1200\u0026w=800","landscape":"https://images.pexels.com/photos/3182765/pexels-photo-3182765.jpeg?auto=compress\u0026cs=tinysrgb\u0026fit=crop\u0026h=627\u0026w=1200","tiny":"https://images.pexels.com/photos/3182765/pexels-photo-3182765.jpeg?auto=compress\u0026cs=tinysrgb\u0026dpr=1\u0026fit=crop\u0026h=200\u0026w=280"},"liked":false,"alt":"Photo
        Of People Talking To Each Other"},{"id":5862308,"width":4386,"height":6579,"url":"https://www.pexels.com/photo/vaccine-text-and-a-person-wearing-latex-glove-while-holding-a-syringe-on-pink-background-5862308/","photographer":"Thirdman","photographer_url":"https://www.pexels.com/@thirdman","photographer_id":3361091,"avg_color":"#EEC9D4","src":{"original":"https://images.pexels.com/photos/5862308/pexels-photo-5862308.jpeg","large2x":"https://images.pexels.com/photos/5862308/pexels-photo-5862308.jpeg?auto=compress\u0026cs=tinysrgb\u0026dpr=2\u0026h=650\u0026w=940","large":"https://images.pexels.com/photos/5862308/pexels-photo-5862308.jpeg?auto=compress\u0026cs=tinysrgb\u0026h=650\u0026w=940","medium":"https://images.pexels.com/photos/5862308/pexels-photo-5862308.jpeg?auto=compress\u0026cs=tinysrgb\u0026h=350","small":"https://images.pexels.com/photos/5862308/pexels-photo-5862308.jpeg?auto=compress\u0026cs=tinysrgb\u0026h=130","portrait":"https://images.pexels.com/photos/5862308/pexels-photo-5862308.jpeg?auto=compress\u0026cs=tinysrgb\u0026fit=crop\u0026h=1200\u0026w=800","landscape":"https://images.pexels.com/photos/5862308/pexels-photo-5862308.jpeg?auto=compress\u0026cs=tinysrgb\u0026fit=crop\u0026h=627\u0026w=1200","tiny":"https://images.pexels.com/photos/5862308/pexels-photo-5862308.jpeg?auto=compress\u0026cs=tinysrgb\u0026dpr=1\u0026fit=crop\u0026h=200\u0026w=280"},"liked":false,"alt":"Vaccine
        Text and A Person Wearing Latex Glove While Holding a Syringe on Pink Background"}],"total_results":2234,"next_page":"https://api.pexels.com/v1/search/?page=2\u0026per_page=15\u0026query=denver%2Cco"}'
  recorded_at: Wed, 09 Mar 2022 14:03:46 GMT
recorded_with: VCR 6.0.0
