---
http_interactions:
- request:
    method: get
    uri: https://api.pexels.com/v1/search?query=Denver
    body:
      encoding: US-ASCII
      string: ''
    headers:
      Authorization:
      - 563492ad6f9170000100000175f18b5cd9cd467e95dc77f966b5e057
      User-Agent:
      - Faraday v2.2.0
      Accept-Encoding:
      - gzip;q=1.0,deflate;q=0.6,identity;q=0.3
      Accept:
      - "*/*"
  response:
    status:
      code: 200
      message: OK
    headers:
      Date:
      - Sun, 06 Mar 2022 15:38:57 GMT
      Content-Type:
      - application/json; charset=utf-8
      Content-Length:
      - '2321'
      Connection:
      - keep-alive
      Cf-Ray:
      - 6e7c2e6b0b21e6c4-EWR
      Cache-Control:
      - max-age=0, private, must-revalidate
      Set-Cookie:
      - __cf_bm=2F_2KGUm2N2L5Gmy_IoBPTUpt4YfH.4T5BUdRNP8HPo-1646581137-0-AVVFYnPKXNs9T1389Tex98o0rAlY4IHZsqBgCuLCRXzZ19IiijLY+g5Ib2DFBpZf1mWMFUTFEsNmBVldC0gXl8g=;
        path=/; expires=Sun, 06-Mar-22 16:08:57 GMT; domain=.pexels.com; HttpOnly;
        Secure; SameSite=None
      - __cf_bm=OswJoMOEVkqS6zWB29m1_ejIsEDpiLTGt94SEQOupo4-1646581137-0-AT1bZXG/nwMZvcUtF6s4+25ux7ZFbsvSJewo7wl6Stx9ZaApbXjnxAeGiaHDBpDVXeM1e6+P406Z1Ojo20nmGCE=;
        path=/; expires=Sun, 06-Mar-22 16:08:57 GMT; domain=.pexels.com; HttpOnly;
        Secure; SameSite=None
      - _mkra_stck=mysql%3A1646581142.3601935; path=/; max-age=10; expires=Sun, 06
        Mar 2022 15:39:07 GMT; HttpOnly
      Vary:
      - Origin, Accept-Encoding
      Cf-Cache-Status:
      - DYNAMIC
      Alt-Svc:
      - h3=":443"; ma=86400, h3-29=":443"; ma=86400
      Expect-Ct:
      - max-age=604800, report-uri="https://report-uri.cloudflare.com/cdn-cgi/beacon/expect-ct"
      X-Frame-Options:
      - SAMEORIGIN
      X-Ratelimit-Limit:
      - '20000'
      X-Ratelimit-Remaining:
      - '19995'
      X-Ratelimit-Reset:
      - '1649100284'
      X-Request-Id:
      - 9e37e585-3c04-4778-a1da-ab416be745eb
      X-Runtime:
      - '0.159317'
      X-Server:
      - anteater
      Server:
      - cloudflare
    body:
      encoding: ASCII-8BIT
      string: '{"page":1,"per_page":15,"photos":[{"id":2706750,"width":6240,"height":4160,"url":"https://www.pexels.com/photo/union-station-building-2706750/","photographer":"Thomas
        Ward","photographer_url":"https://www.pexels.com/@thomasleeward","photographer_id":220769,"avg_color":"#777272","src":{"original":"https://images.pexels.com/photos/2706750/pexels-photo-2706750.jpeg","large2x":"https://images.pexels.com/photos/2706750/pexels-photo-2706750.jpeg?auto=compress\u0026cs=tinysrgb\u0026dpr=2\u0026h=650\u0026w=940","large":"https://images.pexels.com/photos/2706750/pexels-photo-2706750.jpeg?auto=compress\u0026cs=tinysrgb\u0026h=650\u0026w=940","medium":"https://images.pexels.com/photos/2706750/pexels-photo-2706750.jpeg?auto=compress\u0026cs=tinysrgb\u0026h=350","small":"https://images.pexels.com/photos/2706750/pexels-photo-2706750.jpeg?auto=compress\u0026cs=tinysrgb\u0026h=130","portrait":"https://images.pexels.com/photos/2706750/pexels-photo-2706750.jpeg?auto=compress\u0026cs=tinysrgb\u0026fit=crop\u0026h=1200\u0026w=800","landscape":"https://images.pexels.com/photos/2706750/pexels-photo-2706750.jpeg?auto=compress\u0026cs=tinysrgb\u0026fit=crop\u0026h=627\u0026w=1200","tiny":"https://images.pexels.com/photos/2706750/pexels-photo-2706750.jpeg?auto=compress\u0026cs=tinysrgb\u0026dpr=1\u0026fit=crop\u0026h=200\u0026w=280"},"liked":false,"alt":"Union
        Station Building"},{"id":3751010,"width":3712,"height":5568,"url":"https://www.pexels.com/photo/red-and-white-concrete-building-during-night-time-3751010/","photographer":"Colin
        Lloyd","photographer_url":"https://www.pexels.com/@colin-lloyd-2120291","photographer_id":2120291,"avg_color":"#5A4741","src":{"original":"https://images.pexels.com/photos/3751010/pexels-photo-3751010.jpeg","large2x":"https://images.pexels.com/photos/3751010/pexels-photo-3751010.jpeg?auto=compress\u0026cs=tinysrgb\u0026dpr=2\u0026h=650\u0026w=940","large":"https://images.pexels.com/photos/3751010/pexels-photo-3751010.jpeg?auto=compress\u0026cs=tinysrgb\u0026h=650\u0026w=940","medium":"https://images.pexels.com/photos/3751010/pexels-photo-3751010.jpeg?auto=compress\u0026cs=tinysrgb\u0026h=350","small":"https://images.pexels.com/photos/3751010/pexels-photo-3751010.jpeg?auto=compress\u0026cs=tinysrgb\u0026h=130","portrait":"https://images.pexels.com/photos/3751010/pexels-photo-3751010.jpeg?auto=compress\u0026cs=tinysrgb\u0026fit=crop\u0026h=1200\u0026w=800","landscape":"https://images.pexels.com/photos/3751010/pexels-photo-3751010.jpeg?auto=compress\u0026cs=tinysrgb\u0026fit=crop\u0026h=627\u0026w=1200","tiny":"https://images.pexels.com/photos/3751010/pexels-photo-3751010.jpeg?auto=compress\u0026cs=tinysrgb\u0026dpr=1\u0026fit=crop\u0026h=200\u0026w=280"},"liked":false,"alt":"Red
        and White Concrete Building during Night Time"},{"id":3751009,"width":3322,"height":4983,"url":"https://www.pexels.com/photo/brown-concrete-building-during-night-time-3751009/","photographer":"Colin
        Lloyd","photographer_url":"https://www.pexels.com/@colin-lloyd-2120291","photographer_id":2120291,"avg_color":"#606966","src":{"original":"https://images.pexels.com/photos/3751009/pexels-photo-3751009.jpeg","large2x":"https://images.pexels.com/photos/3751009/pexels-photo-3751009.jpeg?auto=compress\u0026cs=tinysrgb\u0026dpr=2\u0026h=650\u0026w=940","large":"https://images.pexels.com/photos/3751009/pexels-photo-3751009.jpeg?auto=compress\u0026cs=tinysrgb\u0026h=650\u0026w=940","medium":"https://images.pexels.com/photos/3751009/pexels-photo-3751009.jpeg?auto=compress\u0026cs=tinysrgb\u0026h=350","small":"https://images.pexels.com/photos/3751009/pexels-photo-3751009.jpeg?auto=compress\u0026cs=tinysrgb\u0026h=130","portrait":"https://images.pexels.com/photos/3751009/pexels-photo-3751009.jpeg?auto=compress\u0026cs=tinysrgb\u0026fit=crop\u0026h=1200\u0026w=800","landscape":"https://images.pexels.com/photos/3751009/pexels-photo-3751009.jpeg?auto=compress\u0026cs=tinysrgb\u0026fit=crop\u0026h=627\u0026w=1200","tiny":"https://images.pexels.com/photos/3751009/pexels-photo-3751009.jpeg?auto=compress\u0026cs=tinysrgb\u0026dpr=1\u0026fit=crop\u0026h=200\u0026w=280"},"liked":false,"alt":"Brown
        Concrete Building during Night Time"},{"id":2269617,"width":4000,"height":6000,"url":"https://www.pexels.com/photo/concrete-buildings-2269617/","photographer":"Spencer
        Selover","photographer_url":"https://www.pexels.com/@spencer-selover-142259","photographer_id":142259,"avg_color":"#564F4B","src":{"original":"https://images.pexels.com/photos/2269617/pexels-photo-2269617.jpeg","large2x":"https://images.pexels.com/photos/2269617/pexels-photo-2269617.jpeg?auto=compress\u0026cs=tinysrgb\u0026dpr=2\u0026h=650\u0026w=940","large":"https://images.pexels.com/photos/2269617/pexels-photo-2269617.jpeg?auto=compress\u0026cs=tinysrgb\u0026h=650\u0026w=940","medium":"https://images.pexels.com/photos/2269617/pexels-photo-2269617.jpeg?auto=compress\u0026cs=tinysrgb\u0026h=350","small":"https://images.pexels.com/photos/2269617/pexels-photo-2269617.jpeg?auto=compress\u0026cs=tinysrgb\u0026h=130","portrait":"https://images.pexels.com/photos/2269617/pexels-photo-2269617.jpeg?auto=compress\u0026cs=tinysrgb\u0026fit=crop\u0026h=1200\u0026w=800","landscape":"https://images.pexels.com/photos/2269617/pexels-photo-2269617.jpeg?auto=compress\u0026cs=tinysrgb\u0026fit=crop\u0026h=627\u0026w=1200","tiny":"https://images.pexels.com/photos/2269617/pexels-photo-2269617.jpeg?auto=compress\u0026cs=tinysrgb\u0026dpr=1\u0026fit=crop\u0026h=200\u0026w=280"},"liked":false,"alt":"Concrete
        Buildings"},{"id":3751006,"width":5399,"height":8701,"url":"https://www.pexels.com/photo/the-denver-post-office-and-federal-court-house-3751006/","photographer":"Colin
        Lloyd","photographer_url":"https://www.pexels.com/@colin-lloyd-2120291","photographer_id":2120291,"avg_color":"#AAABA7","src":{"original":"https://images.pexels.com/photos/3751006/pexels-photo-3751006.jpeg","large2x":"https://images.pexels.com/photos/3751006/pexels-photo-3751006.jpeg?auto=compress\u0026cs=tinysrgb\u0026dpr=2\u0026h=650\u0026w=940","large":"https://images.pexels.com/photos/3751006/pexels-photo-3751006.jpeg?auto=compress\u0026cs=tinysrgb\u0026h=650\u0026w=940","medium":"https://images.pexels.com/photos/3751006/pexels-photo-3751006.jpeg?auto=compress\u0026cs=tinysrgb\u0026h=350","small":"https://images.pexels.com/photos/3751006/pexels-photo-3751006.jpeg?auto=compress\u0026cs=tinysrgb\u0026h=130","portrait":"https://images.pexels.com/photos/3751006/pexels-photo-3751006.jpeg?auto=compress\u0026cs=tinysrgb\u0026fit=crop\u0026h=1200\u0026w=800","landscape":"https://images.pexels.com/photos/3751006/pexels-photo-3751006.jpeg?auto=compress\u0026cs=tinysrgb\u0026fit=crop\u0026h=627\u0026w=1200","tiny":"https://images.pexels.com/photos/3751006/pexels-photo-3751006.jpeg?auto=compress\u0026cs=tinysrgb\u0026dpr=1\u0026fit=crop\u0026h=200\u0026w=280"},"liked":false,"alt":"The
        Denver Post Office and Federal Court House"},{"id":3047493,"width":4669,"height":3159,"url":"https://www.pexels.com/photo/scenic-view-of-the-mountains-with-green-pine-trees-beside-calm-body-of-water-3047493/","photographer":"Joshua
        Woroniecki","photographer_url":"https://www.pexels.com/@joshuaworoniecki","photographer_id":1253228,"avg_color":"#537669","src":{"original":"https://images.pexels.com/photos/3047493/pexels-photo-3047493.jpeg","large2x":"https://images.pexels.com/photos/3047493/pexels-photo-3047493.jpeg?auto=compress\u0026cs=tinysrgb\u0026dpr=2\u0026h=650\u0026w=940","large":"https://images.pexels.com/photos/3047493/pexels-photo-3047493.jpeg?auto=compress\u0026cs=tinysrgb\u0026h=650\u0026w=940","medium":"https://images.pexels.com/photos/3047493/pexels-photo-3047493.jpeg?auto=compress\u0026cs=tinysrgb\u0026h=350","small":"https://images.pexels.com/photos/3047493/pexels-photo-3047493.jpeg?auto=compress\u0026cs=tinysrgb\u0026h=130","portrait":"https://images.pexels.com/photos/3047493/pexels-photo-3047493.jpeg?auto=compress\u0026cs=tinysrgb\u0026fit=crop\u0026h=1200\u0026w=800","landscape":"https://images.pexels.com/photos/3047493/pexels-photo-3047493.jpeg?auto=compress\u0026cs=tinysrgb\u0026fit=crop\u0026h=627\u0026w=1200","tiny":"https://images.pexels.com/photos/3047493/pexels-photo-3047493.jpeg?auto=compress\u0026cs=tinysrgb\u0026dpr=1\u0026fit=crop\u0026h=200\u0026w=280"},"liked":false,"alt":"Scenic
        View Of The Mountains With Green Pine Trees Beside Calm Body of Water"},{"id":3751008,"width":3712,"height":5568,"url":"https://www.pexels.com/photo/people-walking-on-street-3751008/","photographer":"Colin
        Lloyd","photographer_url":"https://www.pexels.com/@colin-lloyd-2120291","photographer_id":2120291,"avg_color":"#595553","src":{"original":"https://images.pexels.com/photos/3751008/pexels-photo-3751008.jpeg","large2x":"https://images.pexels.com/photos/3751008/pexels-photo-3751008.jpeg?auto=compress\u0026cs=tinysrgb\u0026dpr=2\u0026h=650\u0026w=940","large":"https://images.pexels.com/photos/3751008/pexels-photo-3751008.jpeg?auto=compress\u0026cs=tinysrgb\u0026h=650\u0026w=940","medium":"https://images.pexels.com/photos/3751008/pexels-photo-3751008.jpeg?auto=compress\u0026cs=tinysrgb\u0026h=350","small":"https://images.pexels.com/photos/3751008/pexels-photo-3751008.jpeg?auto=compress\u0026cs=tinysrgb\u0026h=130","portrait":"https://images.pexels.com/photos/3751008/pexels-photo-3751008.jpeg?auto=compress\u0026cs=tinysrgb\u0026fit=crop\u0026h=1200\u0026w=800","landscape":"https://images.pexels.com/photos/3751008/pexels-photo-3751008.jpeg?auto=compress\u0026cs=tinysrgb\u0026fit=crop\u0026h=627\u0026w=1200","tiny":"https://images.pexels.com/photos/3751008/pexels-photo-3751008.jpeg?auto=compress\u0026cs=tinysrgb\u0026dpr=1\u0026fit=crop\u0026h=200\u0026w=280"},"liked":false,"alt":"People
        Walking on Street"},{"id":210374,"width":2199,"height":1210,"url":"https://www.pexels.com/photo/architecture-attractions-building-cheesman-park-210374/","photographer":"Pixabay","photographer_url":"https://www.pexels.com/@pixabay","photographer_id":2659,"avg_color":"#5A7359","src":{"original":"https://images.pexels.com/photos/210374/pexels-photo-210374.jpeg","large2x":"https://images.pexels.com/photos/210374/pexels-photo-210374.jpeg?auto=compress\u0026cs=tinysrgb\u0026dpr=2\u0026h=650\u0026w=940","large":"https://images.pexels.com/photos/210374/pexels-photo-210374.jpeg?auto=compress\u0026cs=tinysrgb\u0026h=650\u0026w=940","medium":"https://images.pexels.com/photos/210374/pexels-photo-210374.jpeg?auto=compress\u0026cs=tinysrgb\u0026h=350","small":"https://images.pexels.com/photos/210374/pexels-photo-210374.jpeg?auto=compress\u0026cs=tinysrgb\u0026h=130","portrait":"https://images.pexels.com/photos/210374/pexels-photo-210374.jpeg?auto=compress\u0026cs=tinysrgb\u0026fit=crop\u0026h=1200\u0026w=800","landscape":"https://images.pexels.com/photos/210374/pexels-photo-210374.jpeg?auto=compress\u0026cs=tinysrgb\u0026fit=crop\u0026h=627\u0026w=1200","tiny":"https://images.pexels.com/photos/210374/pexels-photo-210374.jpeg?auto=compress\u0026cs=tinysrgb\u0026dpr=1\u0026fit=crop\u0026h=200\u0026w=280"},"liked":false,"alt":"White
        Concrete Building Under Blue Cloudy Sky"},{"id":2269614,"width":4000,"height":6000,"url":"https://www.pexels.com/photo/traffic-lights-2269614/","photographer":"Spencer
        Selover","photographer_url":"https://www.pexels.com/@spencer-selover-142259","photographer_id":142259,"avg_color":"#6D6E6B","src":{"original":"https://images.pexels.com/photos/2269614/pexels-photo-2269614.jpeg","large2x":"https://images.pexels.com/photos/2269614/pexels-photo-2269614.jpeg?auto=compress\u0026cs=tinysrgb\u0026dpr=2\u0026h=650\u0026w=940","large":"https://images.pexels.com/photos/2269614/pexels-photo-2269614.jpeg?auto=compress\u0026cs=tinysrgb\u0026h=650\u0026w=940","medium":"https://images.pexels.com/photos/2269614/pexels-photo-2269614.jpeg?auto=compress\u0026cs=tinysrgb\u0026h=350","small":"https://images.pexels.com/photos/2269614/pexels-photo-2269614.jpeg?auto=compress\u0026cs=tinysrgb\u0026h=130","portrait":"https://images.pexels.com/photos/2269614/pexels-photo-2269614.jpeg?auto=compress\u0026cs=tinysrgb\u0026fit=crop\u0026h=1200\u0026w=800","landscape":"https://images.pexels.com/photos/2269614/pexels-photo-2269614.jpeg?auto=compress\u0026cs=tinysrgb\u0026fit=crop\u0026h=627\u0026w=1200","tiny":"https://images.pexels.com/photos/2269614/pexels-photo-2269614.jpeg?auto=compress\u0026cs=tinysrgb\u0026dpr=1\u0026fit=crop\u0026h=200\u0026w=280"},"liked":false,"alt":"Traffic
        Lights"},{"id":2910299,"width":3448,"height":4592,"url":"https://www.pexels.com/photo/man-leaning-on-wall-2910299/","photographer":"Aidan
        Roof","photographer_url":"https://www.pexels.com/@rozegold","photographer_id":1271136,"avg_color":"#B2A9AD","src":{"original":"https://images.pexels.com/photos/2910299/pexels-photo-2910299.jpeg","large2x":"https://images.pexels.com/photos/2910299/pexels-photo-2910299.jpeg?auto=compress\u0026cs=tinysrgb\u0026dpr=2\u0026h=650\u0026w=940","large":"https://images.pexels.com/photos/2910299/pexels-photo-2910299.jpeg?auto=compress\u0026cs=tinysrgb\u0026h=650\u0026w=940","medium":"https://images.pexels.com/photos/2910299/pexels-photo-2910299.jpeg?auto=compress\u0026cs=tinysrgb\u0026h=350","small":"https://images.pexels.com/photos/2910299/pexels-photo-2910299.jpeg?auto=compress\u0026cs=tinysrgb\u0026h=130","portrait":"https://images.pexels.com/photos/2910299/pexels-photo-2910299.jpeg?auto=compress\u0026cs=tinysrgb\u0026fit=crop\u0026h=1200\u0026w=800","landscape":"https://images.pexels.com/photos/2910299/pexels-photo-2910299.jpeg?auto=compress\u0026cs=tinysrgb\u0026fit=crop\u0026h=627\u0026w=1200","tiny":"https://images.pexels.com/photos/2910299/pexels-photo-2910299.jpeg?auto=compress\u0026cs=tinysrgb\u0026dpr=1\u0026fit=crop\u0026h=200\u0026w=280"},"liked":false,"alt":"Man
        Leaning On Wall"},{"id":2500159,"width":3448,"height":4592,"url":"https://www.pexels.com/photo/photo-of-man-in-hoodie-sitting-on-concrete-slab-in-view-of-high-rise-building-under-sky-2500159/","photographer":"Aidan
        Roof","photographer_url":"https://www.pexels.com/@rozegold","photographer_id":1271136,"avg_color":"#63585D","src":{"original":"https://images.pexels.com/photos/2500159/pexels-photo-2500159.png","large2x":"https://images.pexels.com/photos/2500159/pexels-photo-2500159.png?auto=compress\u0026cs=tinysrgb\u0026dpr=2\u0026h=650\u0026w=940","large":"https://images.pexels.com/photos/2500159/pexels-photo-2500159.png?auto=compress\u0026cs=tinysrgb\u0026h=650\u0026w=940","medium":"https://images.pexels.com/photos/2500159/pexels-photo-2500159.png?auto=compress\u0026cs=tinysrgb\u0026h=350","small":"https://images.pexels.com/photos/2500159/pexels-photo-2500159.png?auto=compress\u0026cs=tinysrgb\u0026h=130","portrait":"https://images.pexels.com/photos/2500159/pexels-photo-2500159.png?auto=compress\u0026cs=tinysrgb\u0026fit=crop\u0026h=1200\u0026w=800","landscape":"https://images.pexels.com/photos/2500159/pexels-photo-2500159.png?auto=compress\u0026cs=tinysrgb\u0026fit=crop\u0026h=627\u0026w=1200","tiny":"https://images.pexels.com/photos/2500159/pexels-photo-2500159.png?auto=compress\u0026cs=tinysrgb\u0026dpr=1\u0026fit=crop\u0026h=200\u0026w=280"},"liked":false,"alt":"Photo
        of Man in Hoodie Sitting on Concrete Slab in View of  High-rise Building Under
        Sky"},{"id":2422861,"width":3448,"height":4592,"url":"https://www.pexels.com/photo/curtain-wall-high-rise-building-beside-transmission-tower-2422861/","photographer":"Aidan
        Roof","photographer_url":"https://www.pexels.com/@rozegold","photographer_id":1271136,"avg_color":"#989E9E","src":{"original":"https://images.pexels.com/photos/2422861/pexels-photo-2422861.png","large2x":"https://images.pexels.com/photos/2422861/pexels-photo-2422861.png?auto=compress\u0026cs=tinysrgb\u0026dpr=2\u0026h=650\u0026w=940","large":"https://images.pexels.com/photos/2422861/pexels-photo-2422861.png?auto=compress\u0026cs=tinysrgb\u0026h=650\u0026w=940","medium":"https://images.pexels.com/photos/2422861/pexels-photo-2422861.png?auto=compress\u0026cs=tinysrgb\u0026h=350","small":"https://images.pexels.com/photos/2422861/pexels-photo-2422861.png?auto=compress\u0026cs=tinysrgb\u0026h=130","portrait":"https://images.pexels.com/photos/2422861/pexels-photo-2422861.png?auto=compress\u0026cs=tinysrgb\u0026fit=crop\u0026h=1200\u0026w=800","landscape":"https://images.pexels.com/photos/2422861/pexels-photo-2422861.png?auto=compress\u0026cs=tinysrgb\u0026fit=crop\u0026h=627\u0026w=1200","tiny":"https://images.pexels.com/photos/2422861/pexels-photo-2422861.png?auto=compress\u0026cs=tinysrgb\u0026dpr=1\u0026fit=crop\u0026h=200\u0026w=280"},"liked":false,"alt":"Curtain
        Wall High-rise Building Beside Transmission Tower"},{"id":4050386,"width":3245,"height":4671,"url":"https://www.pexels.com/photo/red-and-brown-train-seats-4050386/","photographer":"Colin
        Lloyd","photographer_url":"https://www.pexels.com/@colin-lloyd-2120291","photographer_id":2120291,"avg_color":"#332520","src":{"original":"https://images.pexels.com/photos/4050386/pexels-photo-4050386.jpeg","large2x":"https://images.pexels.com/photos/4050386/pexels-photo-4050386.jpeg?auto=compress\u0026cs=tinysrgb\u0026dpr=2\u0026h=650\u0026w=940","large":"https://images.pexels.com/photos/4050386/pexels-photo-4050386.jpeg?auto=compress\u0026cs=tinysrgb\u0026h=650\u0026w=940","medium":"https://images.pexels.com/photos/4050386/pexels-photo-4050386.jpeg?auto=compress\u0026cs=tinysrgb\u0026h=350","small":"https://images.pexels.com/photos/4050386/pexels-photo-4050386.jpeg?auto=compress\u0026cs=tinysrgb\u0026h=130","portrait":"https://images.pexels.com/photos/4050386/pexels-photo-4050386.jpeg?auto=compress\u0026cs=tinysrgb\u0026fit=crop\u0026h=1200\u0026w=800","landscape":"https://images.pexels.com/photos/4050386/pexels-photo-4050386.jpeg?auto=compress\u0026cs=tinysrgb\u0026fit=crop\u0026h=627\u0026w=1200","tiny":"https://images.pexels.com/photos/4050386/pexels-photo-4050386.jpeg?auto=compress\u0026cs=tinysrgb\u0026dpr=1\u0026fit=crop\u0026h=200\u0026w=280"},"liked":false,"alt":"Red
        and Brown Train Seats"},{"id":4050383,"width":3572,"height":5358,"url":"https://www.pexels.com/photo/low-angle-shot-of-leading-lines-across-the-denver-union-station-4050383/","photographer":"Colin
        Lloyd","photographer_url":"https://www.pexels.com/@colin-lloyd-2120291","photographer_id":2120291,"avg_color":"#4F4842","src":{"original":"https://images.pexels.com/photos/4050383/pexels-photo-4050383.jpeg","large2x":"https://images.pexels.com/photos/4050383/pexels-photo-4050383.jpeg?auto=compress\u0026cs=tinysrgb\u0026dpr=2\u0026h=650\u0026w=940","large":"https://images.pexels.com/photos/4050383/pexels-photo-4050383.jpeg?auto=compress\u0026cs=tinysrgb\u0026h=650\u0026w=940","medium":"https://images.pexels.com/photos/4050383/pexels-photo-4050383.jpeg?auto=compress\u0026cs=tinysrgb\u0026h=350","small":"https://images.pexels.com/photos/4050383/pexels-photo-4050383.jpeg?auto=compress\u0026cs=tinysrgb\u0026h=130","portrait":"https://images.pexels.com/photos/4050383/pexels-photo-4050383.jpeg?auto=compress\u0026cs=tinysrgb\u0026fit=crop\u0026h=1200\u0026w=800","landscape":"https://images.pexels.com/photos/4050383/pexels-photo-4050383.jpeg?auto=compress\u0026cs=tinysrgb\u0026fit=crop\u0026h=627\u0026w=1200","tiny":"https://images.pexels.com/photos/4050383/pexels-photo-4050383.jpeg?auto=compress\u0026cs=tinysrgb\u0026dpr=1\u0026fit=crop\u0026h=200\u0026w=280"},"liked":false,"alt":"Low-Angle
        Shot of Leading Lines Across the Denver Union Station"},{"id":9376507,"width":5986,"height":3991,"url":"https://www.pexels.com/photo/people-walking-on-park-near-high-rise-buildings-9376507/","photographer":"Arpan
        Parikh","photographer_url":"https://www.pexels.com/@arpan-parikh-78161269","photographer_id":78161269,"avg_color":"#AD9589","src":{"original":"https://images.pexels.com/photos/9376507/pexels-photo-9376507.jpeg","large2x":"https://images.pexels.com/photos/9376507/pexels-photo-9376507.jpeg?auto=compress\u0026cs=tinysrgb\u0026dpr=2\u0026h=650\u0026w=940","large":"https://images.pexels.com/photos/9376507/pexels-photo-9376507.jpeg?auto=compress\u0026cs=tinysrgb\u0026h=650\u0026w=940","medium":"https://images.pexels.com/photos/9376507/pexels-photo-9376507.jpeg?auto=compress\u0026cs=tinysrgb\u0026h=350","small":"https://images.pexels.com/photos/9376507/pexels-photo-9376507.jpeg?auto=compress\u0026cs=tinysrgb\u0026h=130","portrait":"https://images.pexels.com/photos/9376507/pexels-photo-9376507.jpeg?auto=compress\u0026cs=tinysrgb\u0026fit=crop\u0026h=1200\u0026w=800","landscape":"https://images.pexels.com/photos/9376507/pexels-photo-9376507.jpeg?auto=compress\u0026cs=tinysrgb\u0026fit=crop\u0026h=627\u0026w=1200","tiny":"https://images.pexels.com/photos/9376507/pexels-photo-9376507.jpeg?auto=compress\u0026cs=tinysrgb\u0026dpr=1\u0026fit=crop\u0026h=200\u0026w=280"},"liked":false,"alt":"People
        Walking on Park Near High Rise Buildings"}],"total_results":74,"next_page":"https://api.pexels.com/v1/search/?page=2\u0026per_page=15\u0026query=Denver"}'
  recorded_at: Sun, 06 Mar 2022 15:38:57 GMT
recorded_with: VCR 6.0.0
